public int[] quadrieren(int a, int b){
        int wert = a;
        int[] length = new int[b];
        for(int i = 0; i < b; i++){
            length[i] = wert;
            wert = wert * wert;
            System.out.println(length[i]);
        }
        System.out.println("Beendet");
        return length;
    }